Suma de requeridas: 49
Valor Objetivo: 576.0
Tiempo de Ejecución: 0.11086082458496094 segundos
Resultados obtenidos: 
{'x1': 0.0, 'x2': 0.0, 'x3': 0.0, 'x4': 0.0, 'x5': 0.0, 'x6': 0.0, 'x7': 0.0, 'x8': 0.0, 'x9': 1.0, 'x10': 1.0, 'x11': 0.0, 'x12': 0.0, 'x13': 0.0, 'x14': 0.0, 'x15': 0.0, 'x16': 0.0, 'x17': 3.0, 'x18': 1.0, 'x19': 0.0, 'x20': 0.0, 'x21': 0.0, 'x22': 1.0, 'x23': 1.0, 'x24': 1.0}
