Suma de requeridas: 191
Valor Objetivo: 3553.0
Tiempo de Ejecución: 1.2079188823699951 segundos
Resultados obtenidos: 
{'x1': 0.0, 'x2': 0.0, 'x3': 0.0, 'x4': 0.0, 'x5': 0.0, 'x6': 0.0, 'x7': 0.0, 'x8': 0.0, 'x9': 0.0, 'x10': 0.0, 'x11': 0.0, 'x12': 0.0, 'x13': 0.0, 'x14': 0.0, 'x15': 0.0, 'x16': 1.0000000000000009, 'x17': 5.0, 'x18': 0.0, 'x19': 0.0, 'x20': 0.0, 'x21': 0.0, 'x22': 0.0, 'x23': 1.0000000000000004, 'x24': 0.0, 'x25': 0.0, 'x26': 1.0, 'x27': 0.0, 'x28': 0.9999999999999996, 'x29': 1.0, 'x30': 2.0, 'x31': 4.0, 'x32': 0.0, 'x33': 1.0, 'x34': 3.0000000000000004, 'x35': 5.0, 'x36': 1.0, 'x37': 0.9999999999999999, 'x38': 2.0, 'x39': 1.9999999999999991, 'x40': 0.0, 'x41': 0.0, 'x42': 1.0, 'x43': 1.0, 'x44': 2.0, 'x45': 2.0, 'x46': 1.0}
